{
	"idSeller":950,
	"idNewSeller":42,
	"idSellerNetwork":42,
	"dateExecution": "2024-02-06"
}
{
	"idSeller":955,
	"idNewSeller":42,
	"idSellerNetwork":42,
	"dateExecution": "2024-02-06"
}
{
	"idSeller":1392,
	"idNewSeller":42,
	"idSellerNetwork":42,
	"dateExecution": "2024-02-06"
}
{
	"idSeller":1905,
	"idNewSeller":42,
	"idSellerNetwork":42,
	"dateExecution": "2024-02-06"
}
{
	"idSeller":1892,
	"idNewSeller":42,
	"idSellerNetwork":42,
	"dateExecution": "2024-02-06"
}
{
	"idSeller":1989,
	"idNewSeller":42,
	"idSellerNetwork":42,
	"dateExecution": "2024-02-06"
}
{
	"idSeller":1984,
	"idNewSeller":42,
	"idSellerNetwork":42,
	"dateExecution": "2024-02-06"
}
{
	"idSeller":1958,
	"idNewSeller":42,
	"idSellerNetwork":42,
	"dateExecution": "2024-02-06"
}
{
	"idSeller":1689,
	"idNewSeller":42,
	"idSellerNetwork":42,
	"dateExecution": "2024-02-06"
}
{
	"idSeller":1714,
	"idNewSeller":42,
	"idSellerNetwork":42,
	"dateExecution": "2024-02-06"
}
{
	"idSeller":1744,
	"idNewSeller":42,
	"idSellerNetwork":42,
	"dateExecution": "2024-02-06"
}
{
	"idSeller":1709,
	"idNewSeller":42,
	"idSellerNetwork":42,
	"dateExecution": "2024-02-06"
}
{
	"idSeller":1725,
	"idNewSeller":42,
	"idSellerNetwork":42,
	"dateExecution": "2024-02-06"
}
{
	"idSeller":1772,
	"idNewSeller":42,
	"idSellerNetwork":42,
	"dateExecution": "2024-02-06"
}
{
	"idSeller":1829,
	"idNewSeller":42,
	"idSellerNetwork":42,
	"dateExecution": "2024-02-06"
}
